{
  "main": [
    {
      "name": "facebook",
      "icon": "fab fa-facebook",
      "link": "https://www.facebook.com/thienvienkhanhan"
    },
    {
      "name": "gitlab",
      "icon": "fab fa-gitlab",
      "link": "https://gitlab.com/thienvienkhanhan/TVKA"
    }
  ]
}
